{
	"node":3,
	"manager":3,
	"worker":0,
	"service":{
		"helloworld":{
			"replicas":3
		},
		"kafka_broker3":{
			"replicas" : 2
		},
		"kafka_zookeeper3":{
			"replicas" : 1
		},
		"versa_nodesocket2":{
			"replicas" : 1
		},
		"kafka_broker2":{
			"replicas" : 1
		},
		"versa_shop1":{
			"replicas" : 1
		},
		"versa_shop2":{
			"replicas" : 1
		},
		"versa_nodesocket1":{
			"replicas" : 1
		},
		"kafka_broker1":{
			"replicas" : 1
		},
		"versa_dashboard":{
			"replicas" : 1
		},
		"versa_shop3":{
			"replicas" : 1
		},
		"kafka_zookeeper2":{
			"replicas" : 1
		},
		"versa_haproxy":{
			"replicas" : "None"
		},
		"kafka_zookeeper1":{
			"replicas" : 1
		},
		"versa_streamprocessor":{
			"replicas" : 1
		},
		"versa_api":{
			"replicas" : 1
		}
	},
	"hostname":"192.168.4.225",
	"hostname1":"192.168.5.72",
	"port":"2376",
	"container_check":1,
	"service_check":1
}